project_1.sim/sim_1/behav/xsim/top_tb.vcd
$date
   Mon May 12 19:28:02 2025
$end
$version
  2017.4
$end
$timescale
  1ps
$end
$scope module Top_tb $end
$var reg 1 ! clk $end
$var reg 1 " rst $end
$var reg 1 # sure_btn1 $end
$var reg 1 $ x0 $end
$var reg 1 % x1 $end
$var reg 1 & x2 $end
$var reg 1 ' sw0 $end
$var reg 1 ( sw1 $end
$var reg 1 ) sw2 $end
$var reg 1 * sw3 $end
$var reg 1 + sw4 $end
$var reg 1 , sw5 $end
$var reg 1 - sw6 $end
$var reg 1 . sw7 $end
$var reg 1 / scene1_btn $end
$var reg 1 0 scene2_btn $end
$var wire 1 1 scene1_lt $end
$var wire 1 2 scene2_lt $end
$var wire 1 3 lt0 $end
$var wire 1 4 lt1 $end
$var wire 1 5 lt2 $end
$var wire 1 6 lt3 $end
$var wire 1 7 lt4 $end
$var wire 1 8 lt5 $end
$var wire 1 9 lt6 $end
$var wire 1 : lt7 $end
$var wire 1 ; light $end
$var wire 1 < sure_lt $end
$scope module uut $end
$var wire 1 = clk $end
$var wire 1 > rst $end
$var wire 1 ? sure_btn1 $end
$var wire 1 @ x0 $end
$var wire 1 A x1 $end
$var wire 1 B x2 $end
$var wire 1 C sw0 $end
$var wire 1 D sw1 $end
$var wire 1 E sw2 $end
$var wire 1 F sw3 $end
$var wire 1 G sw4 $end
$var wire 1 H sw5 $end
$var wire 1 I sw6 $end
$var wire 1 J sw7 $end
$var wire 1 K scene1_btn $end
$var wire 1 L scene2_btn $end
$var reg 1 M scene1_lt $end
$var reg 1 N scene2_lt $end
$var reg 1 O lt0 $end
$var reg 1 P lt1 $end
$var reg 1 Q lt2 $end
$var reg 1 R lt3 $end
$var reg 1 S lt4 $end
$var reg 1 T lt5 $end
$var reg 1 U lt6 $end
$var reg 1 V lt7 $end
$var reg 1 W light $end
$var reg 1 X sure_lt $end
$var wire 1 Y sure_btn1_pressed $end
$var wire 1 Z scene1_btn_pressed $end
$var wire 1 [ scene2_btn_pressed $end
$scope module b1 $end
$var wire 1 ? btn $end
$var wire 1 = clk $end
$var wire 1 > rst $end
$var reg 1 \ pressed $end
$var reg 1 ] stable $end
$var reg 1 ^ stable_d $end
$var reg 2 _ sig [1:0] $end
$var reg 32 ` cnt [31:0] $end
$var parameter 32 a period [31:0] $end
$upscope $end
$scope module b2 $end
$var wire 1 K btn $end
$var wire 1 = clk $end
$var wire 1 > rst $end
$var reg 1 b pressed $end
$var reg 1 c stable $end
$var reg 1 d stable_d $end
$var reg 2 e sig [1:0] $end
$var reg 32 f cnt [31:0] $end
$var parameter 32 g period [31:0] $end
$upscope $end
$scope module b3 $end
$var wire 1 L btn $end
$var wire 1 = clk $end
$var wire 1 > rst $end
$var reg 1 h pressed $end
$var reg 1 i stable $end
$var reg 1 j stable_d $end
$var reg 2 k sig [1:0] $end
$var reg 32 l cnt [31:0] $end
$var parameter 32 m period [31:0] $end
$upscope $end
$scope module umain $end
$var wire 1 = clk $end
$var wire 1 > rst $end
$var wire 1 n Branch $end
$var wire 1 o MemRead $end
$var wire 1 p MemtoReg $end
$var wire 1 q MemWrite $end
$var wire 1 r ALUSrc $end
$var wire 1 s RegWrite $end
$var wire 2 t ALUOp [1:0] $end
$var wire 4 u ALUControl [3:0] $end
$var wire 3 v funct3 [2:0] $end
$var wire 7 w funct7 [6:0] $end
$var wire 32 x imm32 [31:0] $end
$var wire 32 y ReadData1 [31:0] $end
$var wire 32 z ReadData2 [31:0] $end
$var wire 32 { WriteData [31:0] $end
$var wire 32 | Readdata [31:0] $end
$var wire 32 } ALUResult [31:0] $end
$var wire 1 ~ zero $end
$var wire 32 !! pc [31:0] $end
$var wire 32 "! instruction [31:0] $end
$var wire 5 #! ReadRegister1 [4:0] $end
$var wire 5 $! ReadRegister2 [4:0] $end
$var wire 5 %! WriteRegister [4:0] $end
$scope module ufetch $end
$var wire 1 = clk $end
$var wire 1 > rst $end
$var wire 1 n branch $end
$var wire 1 ~ zero $end
$var wire 32 x imm32 [31:0] $end
$var reg 32 &! pc [31:0] $end
$upscope $end
$scope module uinstmem $end
$var wire 32 !! address [31:0] $end
$var reg 32 '! instruction [31:0] $end
$upscope $end
$scope module ucon $end
$var wire 32 "! inst [31:0] $end
$var wire 1 n Branch $end
$var wire 1 o MemRead $end
$var wire 1 p MemtoReg $end
$var wire 1 q MemWrite $end
$var wire 1 r ALUSrc $end
$var wire 1 s RegWrite $end
$var reg 2 (! ALUOp [1:0] $end
$var wire 7 )! opcode [6:0] $end
$upscope $end
$scope module ureg $end
$var wire 1 = clk $end
$var wire 1 > rst $end
$var wire 1 s RegWrite $end
$var wire 5 #! ReadRegister1 [4:0] $end
$var wire 5 $! ReadRegister2 [4:0] $end
$var wire 5 %! WriteRegister [4:0] $end
$var wire 32 } ALUResult [31:0] $end
$var wire 32 | Readdata [31:0] $end
$var wire 1 p MemtoReg $end
$var wire 32 y ReadData1 [31:0] $end
$var wire 32 z ReadData2 [31:0] $end
$var wire 32 *! WriteData [31:0] $end
$var integer 32 +! i $end
$scope module umux2 $end
$var wire 32 } input1 [31:0] $end
$var wire 32 | input2 [31:0] $end
$var wire 1 p select $end
$var reg 32 ,! mux_out [31:0] $end
$upscope $end
$upscope $end
$scope module uALUcontrol $end
$var wire 2 t ALUOp [1:0] $end
$var wire 3 v funct3 [2:0] $end
$var wire 7 w funct7 [6:0] $end
$var reg 4 -! ALUControl [3:0] $end
$upscope $end
$scope module uimm $end
$var wire 32 "! instruction [31:0] $end
$var reg 32 .! imm32 [31:0] $end
$var wire 7 /! opcode [6:0] $end
$upscope $end
$scope module uALU $end
$var wire 32 y ReadData1 [31:0] $end
$var wire 32 z ReadData2 [31:0] $end
$var wire 32 x imm32 [31:0] $end
$var wire 1 r ALUSrc $end
$var wire 4 u ALUControl [3:0] $end
$var reg 32 0! ALUResult [31:0] $end
$var wire 1 ~ zero $end
$var wire 32 1! operand2 [31:0] $end
$scope module umux1 $end
$var wire 32 z input1 [31:0] $end
$var wire 32 x input2 [31:0] $end
$var wire 1 r select $end
$var reg 32 2! mux_out [31:0] $end
$upscope $end
$upscope $end
$scope module udatamem $end
$var wire 1 = clk $end
$var wire 1 > rst $end
$var wire 1 o MemRead $end
$var wire 1 q MemWrite $end
$var wire 32 } Address [31:0] $end
$var wire 32 z Writedata [31:0] $end
$var reg 32 3! Readdata [31:0] $end
$var integer 32 4! i $end
$upscope $end
$upscope $end
$upscope $end
$upscope $end
$enddefinitions $end
#0
$dumpvars
0!
b0 !!
1"
bx "!
0#
bx #!
0$
bx $!
0%
bx %!
0&
b0 &!
0'
bx '!
0(
bx (!
0)
bx )!
0*
bx *!
0+
bx +!
0,
bx ,!
0-
bx -!
0.
bx .!
0/
bx /!
00
bx 0!
x1
bx 1!
x2
bx 2!
03
b0 3!
04
bx 4!
05
06
07
08
09
0:
x;
0<
0=
1>
0?
0@
0A
0B
0C
0D
0E
0F
0G
0H
0I
0J
0K
0L
xM
xN
0O
0P
0Q
0R
0S
0T
0U
0V
xW
0X
0Y
0Z
0[
0\
0]
0^
b0 _
b0 `
b11110100001001000000 a
0b
0c
0d
b0 e
b0 f
b11110100001001000000 g
0h
0i
0j
b0 k
b0 l
b11110100001001000000 m
xn
xo
xp
xq
xr
xs
bx t
bx u
bx v
bx w
bx x
bx y
bx z
bz {
b0 |
bx }
x~
$end
#5000
1!
b0 &!
01
02
1=
0M
0N
0\
0b
0h
#10000
0!
0=
#15000
1!
b0 &!
1=
0M
0N
0\
0b
0h
#20000
0!
0=
#25000
1!
b0 &!
1=
0M
0N
0\
0b
0h
#30000
0!
0=
#35000
1!
b0 &!
1=
0M
0N
0\
0b
0h
#40000
0!
0=
#45000
1!
b0 &!
1=
0M
0N
0\
0b
0h
#50000
0!
0=
#55000
1!
b0 &!
1=
0M
0N
0\
0b
0h
#60000
0!
0=
#65000
1!
b0 &!
1=
0M
0N
0\
0b
0h
#70000
0!
0=
#75000
1!
b0 &!
1=
0M
0N
0\
0b
0h
#80000
0!
0=
#85000
1!
b0 &!
1=
0M
0N
0\
0b
0h
#90000
0!
0=
#95000
1!
b0 &!
1=
0M
0N
0\
0b
0h
#100000
0!
0"
0=
0>
#105000
1!
b100 !!
b100 &!
bx '!
1=
0\
0b
0h
#110000
0!
0=
#115000
1!
b1000 !!
b1000 &!
bx '!
1=
0\
0b
0h
#120000
0!
0=
#125000
1!
b1100 !!
b1100 &!
bx '!
1=
0\
0b
0h
#130000
0!
0=
#135000
1!
b10000 !!
b10000 &!
bx '!
1=
0\
0b
0h
#140000
0!
0=
#145000
1!
b10100 !!
b10100 &!
bx '!
1=
0\
0b
0h
#150000
0!
0=
#155000
1!
b11000 !!
b11000 &!
bx '!
1=
0\
0b
0h
#160000
0!
0=
#165000
1!
b11100 !!
b11100 &!
bx '!
1=
0\
0b
0h
#170000
0!
0=
#175000
1!
b100000 !!
b100000 &!
bx '!
1=
0\
0b
0h
#180000
0!
0=
#185000
1!
b100100 !!
b100100 &!
bx '!
1=
0\
0b
0h
#190000
0!
0=
#195000
1!
b101000 !!
b101000 &!
bx '!
1=
0\
0b
0h
#200000
0!
1/
0=
1K
#205000
1!
b101100 !!
b101100 &!
bx '!
1=
0\
0b
b1 e
0h
#210000
0!
0=
#215000
1!
b110000 !!
b110000 &!
bx '!
1=
0\
0b
b11 e
0h
#218000
0/
0K
#220000
0!
0=
#225000
1!
b110100 !!
b110100 &!
bx '!
1=
0\
0b
b10 e
b1 f
0h
#230000
0!
0=
#235000
1!
b111000 !!
b111000 &!
bx '!
1=
0\
0b
b0 e
b10 f
0h
#240000
0!
0=
#245000
1!
b111100 !!
b111100 &!
bx '!
1/
1=
1K
0\
0b
b1 e
b0 f
0h
#250000
0!
0=
#255000
1!
b1000000 !!
b1000000 &!
bx '!
1=
0\
0b
b11 e
0h
#260000
0!
0=
#265000
1!
b1000100 !!
b1000100 &!
bx '!
1=
0\
0b
b1 f
0h
#270000
0!
0=
#272000
0/
0K
#275000
1!
b1001000 !!
b1001000 &!
bx '!
1=
0\
0b
b10 e
b10 f
0h
#280000
0!
0=
#285000
1!
b1001100 !!
b1001100 &!
bx '!
1=
0\
0b
b0 e
b11 f
0h
#289000
1/
1K
#290000
0!
0=
#295000
1!
b1010000 !!
b1010000 &!
bx '!
1=
0\
0b
b1 e
b0 f
0h
#300000
0!
0=
#305000
1!
b1010100 !!
b1010100 &!
bx '!
1=
0\
0b
b11 e
0h
#310000
0!
0=
#315000
1!
b1011000 !!
b1011000 &!
bx '!
1=
0\
0b
b1 f
0h
#316000
0/
0K
#320000
0!
0=
#325000
1!
b1011100 !!
b1011100 &!
bx '!
1=
0\
0b
b10 e
b10 f
0h
#330000
0!
0=
#335000
1!
b1100000 !!
b1100000 &!
bx '!
1=
0\
0b
b0 e
b11 f
0h
#340000
0!
0=
#343000
1/
1K
#345000
1!
b1100100 !!
b1100100 &!
bx '!
1=
0\
0b
b1 e
b0 f
0h
#350000
0!
0=
#355000
1!
b1101000 !!
b1101000 &!
bx '!
1=
0\
0b
b11 e
0h
#358000
0/
0K
#360000
0!
0=
#365000
1!
b1101100 !!
b1101100 &!
bx '!
1=
0\
0b
b10 e
b1 f
0h
#370000
0!
1/
0=
1K
#375000
1!
b1110000 !!
b1110000 &!
bx '!
1=
0\
0b
b1 e
b10 f
0h
#380000
0!
0=
#381000
0/
0K
#385000
1!
b1110100 !!
b1110100 &!
bx '!
1=
0\
0b
b10 e
b0 f
0h
#390000
0!
0=
#395000
1!
b1111000 !!
b1111000 &!
bx '!
1=
0\
0b
b0 e
b1 f
0h
#400000
0!
1/
0=
1K
#405000
1!
b1111100 !!
b1111100 &!
bx '!
1=
0\
0b
b1 e
b0 f
0h
#410000
0!
0=
#415000
1!
b10000000 !!
b10000000 &!
bx '!
1=
0\
0b
b11 e
0h
#420000
0!
0=
#425000
1!
b10000100 !!
b10000100 &!
bx '!
1=
0\
0b
b1 f
0h
#428000
0/
0K
#430000
0!
0=
#435000
1!
b10001000 !!
b10001000 &!
bx '!
1=
0\
0b
b10 e
b10 f
0h
#440000
0!
0=
#445000
1!
b10001100 !!
b10001100 &!
bx '!
1=
0\
0b
b0 e
b11 f
0h
#450000
0!
0=
#455000
1!
b10010000 !!
b10010000 &!
bx '!
1/
1=
1K
0\
0b
b1 e
b0 f
0h
#460000
0!
0=
#465000
1!
b10010100 !!
b10010100 &!
bx '!
1=
0\
0b
b11 e
0h
#470000
0!
0=
#474000
0/
0K
#475000
1!
b10011000 !!
b10011000 &!
bx '!
1=
0\
0b
b10 e
b1 f
0h
#480000
0!
0=
#485000
1!
b10011100 !!
b10011100 &!
bx '!
1=
0\
0b
b0 e
b10 f
0h
#490000
0!
0=
#495000
1!
b10100000 !!
b10100000 &!
bx '!
1=
0\
0b
b0 f
0h
#496000
1/
1K
#500000
0!
0=
#505000
1!
b10100100 !!
b10100100 &!
bx '!
1=
0\
0b
b1 e
0h
#510000
0!
0=
#515000
1!
b10101000 !!
b10101000 &!
bx '!
0/
1=
0K
0\
0b
b10 e
0h
#520000
0!
0=
#525000
1!
b10101100 !!
b10101100 &!
bx '!
1=
0\
0b
b0 e
b1 f
0h
#530000
0!
0=
#531000
1/
1K
#535000
1!
b10110000 !!
b10110000 &!
bx '!
1=
0\
0b
b1 e
b0 f
0h
#540000
0!
0=
#545000
1!
b10110100 !!
b10110100 &!
bx '!
1=
0\
0b
b11 e
0h
#550000
0!
0=
#555000
1!
b10111000 !!
b10111000 &!
bx '!
1=
0\
0b
b1 f
0h
#558000
0/
0K
#560000
0!
0=
#565000
1!
b10111100 !!
b10111100 &!
bx '!
1=
0\
0b
b10 e
b10 f
0h
#570000
0!
1/
0=
1K
#575000
1!
b11000000 !!
b11000000 &!
bx '!
1=
0\
0b
b1 e
b11 f
0h
#580000
0!
0=
#585000
1!
b11000100 !!
b11000100 &!
bx '!
0/
1=
0K
0\
0b
b10 e
b0 f
0h
#590000
0!
0=
#595000
1!
b11001000 !!
b11001000 &!
bx '!
1=
0\
0b
b0 e
b1 f
0h
#600000
0!
0=
#605000
1!
b11001100 !!
b11001100 &!
bx '!
1=
0\
0b
b0 f
0h
#610000
0!
1/
0=
1K
#615000
1!
b11010000 !!
b11010000 &!
bx '!
1=
0\
0b
b1 e
0h
#620000
0!
0=
#625000
1!
b11010100 !!
b11010100 &!
bx '!
1=
0\
0b
b11 e
0h
#630000
0!
0=
#635000
1!
b11011000 !!
b11011000 &!
bx '!
1=
0\
0b
b1 f
0h
#640000
0!
0=
#645000
1!
b11011100 !!
b11011100 &!
bx '!
1=
0\
0b
b10 f
0h
#650000
0!
0=
#655000
1!
b11100000 !!
b11100000 &!
bx '!
1=
0\
0b
b11 f
0h
#660000
0!
0=
#665000
1!
b11100100 !!
b11100100 &!
bx '!
1=
0\
0b
b100 f
0h
#670000
0!
0=
#675000
1!
b11101000 !!
b11101000 &!
bx '!
1=
0\
0b
b101 f
0h
#680000
0!
0=
#685000
1!
b11101100 !!
b11101100 &!
bx '!
1=
0\
0b
b110 f
0h
#690000
0!
0=
#695000
1!
b11110000 !!
b11110000 &!
bx '!
1=
0\
0b
b111 f
0h
#700000
0!
0=
#705000
1!
b11110100 !!
b11110100 &!
bx '!
1=
0\
0b
b1000 f
0h
#710000
0!
0=
#715000
1!
b11111000 !!
b11111000 &!
bx '!
1=
0\
0b
b1001 f
0h
#720000
0!
0=
#725000
1!
b11111100 !!
b11111100 &!
bx '!
1=
0\
0b
b1010 f
0h
#730000
0!
0=
#735000
1!
b100000000 !!
b100000000 &!
bx '!
1=
0\
0b
b1011 f
0h
#740000
0!
0=
#745000
1!
b100000100 !!
b100000100 &!
bx '!
1=
0\
0b
b1100 f
0h
#750000
0!
0=
#755000
1!
b100001000 !!
b100001000 &!
bx '!
1=
0\
0b
b1101 f
0h
#760000
0!
0=
#765000
1!
b100001100 !!
b100001100 &!
bx '!
1=
0\
0b
b1110 f
0h
#770000
0!
0=
#775000
1!
b100010000 !!
b100010000 &!
bx '!
1=
0\
0b
b1111 f
0h
#780000
0!
0=
#785000
1!
b100010100 !!
b100010100 &!
bx '!
1=
0\
0b
b10000 f
0h
#790000
0!
0=
#795000
1!
b100011000 !!
b100011000 &!
bx '!
1=
0\
0b
b10001 f
0h
#800000
0!
0=
#805000
1!
b100011100 !!
b100011100 &!
bx '!
1=
0\
0b
b10010 f
0h
#810000
0!
0=
#815000
1!
b100100000 !!
b100100000 &!
bx '!
1=
0\
0b
b10011 f
0h
#820000
0!
0=
#825000
1!
b100100100 !!
b100100100 &!
bx '!
1=
0\
0b
b10100 f
0h
#830000
0!
0=
#835000
1!
b100101000 !!
b100101000 &!
bx '!
1=
0\
0b
b10101 f
0h
#840000
0!
0=
#845000
1!
b100101100 !!
b100101100 &!
bx '!
1=
0\
0b
b10110 f
0h
#850000
0!
0=
#855000
1!
b100110000 !!
b100110000 &!
bx '!
1=
0\
0b
b10111 f
0h
#860000
0!
0=
#865000
1!
b100110100 !!
b100110100 &!
bx '!
1=
0\
0b
b11000 f
0h
#870000
0!
0=
#875000
1!
b100111000 !!
b100111000 &!
bx '!
1=
0\
0b
b11001 f
0h
#880000
0!
0=
#885000
1!
b100111100 !!
b100111100 &!
bx '!
1=
0\
0b
b11010 f
0h
#890000
0!
0=
#895000
1!
b101000000 !!
b101000000 &!
bx '!
1=
0\
0b
b11011 f
0h
#900000
0!
0=
#905000
1!
b101000100 !!
b101000100 &!
bx '!
1=
0\
0b
b11100 f
0h
#910000
0!
0=
#915000
1!
b101001000 !!
b101001000 &!
bx '!
1=
0\
0b
b11101 f
0h
#920000
0!
0=
#925000
1!
b101001100 !!
b101001100 &!
bx '!
1=
0\
0b
b11110 f
0h
#930000
0!
0=
#935000
1!
b101010000 !!
b101010000 &!
bx '!
1=
0\
0b
b11111 f
0h
#940000
0!
0=
#945000
1!
b101010100 !!
b101010100 &!
bx '!
1=
0\
0b
b100000 f
0h
#950000
0!
0=
#955000
1!
b101011000 !!
b101011000 &!
bx '!
1=
0\
0b
b100001 f
0h
#960000
0!
0=
#965000
1!
b101011100 !!
b101011100 &!
bx '!
1=
0\
0b
b100010 f
0h
#970000
0!
0=
#975000
1!
b101100000 !!
b101100000 &!
bx '!
1=
0\
0b
b100011 f
0h
#980000
0!
0=
#985000
1!
b101100100 !!
b101100100 &!
bx '!
1=
0\
0b
b100100 f
0h
#990000
0!
0=
#995000
1!
b101101000 !!
b101101000 &!
bx '!
1=
0\
0b
b100101 f
0h
